<?xml version="1.0" encoding="UTF-8" standalone="no"?>
<!-- Created with Inkscape (http://www.inkscape.org/) -->

<svg
   version="1.1"
   id="svg943"
   width="151.4615"
   height="164.14709"
   viewBox="0 0 151.4615 164.1471"
   sodipodi:docname="logo.svg"
   inkscape:version="1.1 (c68e22c387, 2021-05-23)"
   xmlns:inkscape="http://www.inkscape.org/namespaces/inkscape"
   xmlns:sodipodi="http://sodipodi.sourceforge.net/DTD/sodipodi-0.dtd"
   xmlns:xlink="http://www.w3.org/1999/xlink"
   xmlns="http://www.w3.org/2000/svg"
   xmlns:svg="http://www.w3.org/2000/svg">
  <defs
     id="defs947" />
  <sodipodi:namedview
     id="namedview945"
     pagecolor="#ffffff"
     bordercolor="#666666"
     borderopacity="1.0"
     inkscape:pageshadow="2"
     inkscape:pageopacity="0.0"
     inkscape:pagecheckerboard="0"
     showgrid="false"
     inkscape:zoom="1.7396215"
     inkscape:cx="73.866643"
     inkscape:cy="86.80049"
     inkscape:window-width="1280"
     inkscape:window-height="651"
     inkscape:window-x="0"
     inkscape:window-y="32"
     inkscape:window-maximized="1"
     inkscape:current-layer="g949"
     inkscape:snap-global="false"
     fit-margin-top="0"
     fit-margin-left="0"
     fit-margin-right="0"
     fit-margin-bottom="0" />
  <g
     inkscape:groupmode="layer"
     inkscape:label="Image"
     id="g949"
     transform="translate(-13.806032,-3.5830978)">
    <g
       id="g39092"
       style="stroke:#ff00ff">
      <path
         id="path39064"
         style="font-variation-settings:normal;opacity:1;vector-effect:none;fill:#000000;fill-opacity:1;stroke:none;stroke-width:1px;stroke-linecap:round;stroke-linejoin:miter;stroke-miterlimit:4;stroke-dasharray:none;stroke-dashoffset:0;stroke-opacity:1;-inkscape-stroke:none;stop-color:#000000;stop-opacity:1"
         sodipodi:type="inkscape:offset"
         inkscape:radius="8.1036186"
         inkscape:original="M 80.880859 11.767578 C 73.419412 12.573568 71.041401 19.270783 70.695312 24.054688 C 70.066616 32.745014 65.992188 29.140625 65.992188 29.140625 C 61.795545 23.846395 57.057542 18.894616 47.642578 19.298828 C 46.40565 19.351928 45.185074 19.749234 43.994141 20.318359 C 42.571469 19.842831 41.287271 19.625219 40.193359 19.574219 C 28.843205 19.045062 24.535961 39.219802 37.671875 44.089844 C 43.067628 46.640393 51.117323 54.286443 49.65625 67.371094 C 48.337253 79.183386 33.948718 77.054479 32.066406 71.236328 L 34.857422 65.724609 C 37.359176 70.96455 45.705389 67.17288 45.730469 61.296875 C 45.756869 55.112737 36.848825 48.303688 27.103516 58.851562 C 21.405364 65.01898 21.473058 77.07269 26.542969 84.931641 C 17.972182 94.418673 22.052201 117.72215 33.980469 119.79297 C 40.523383 120.92886 44.232864 118.30913 45.210938 114.7832 C 51.670053 116.94416 56.007467 121.13194 58.585938 125.50781 C 54.358587 124.1537 49.890727 123.44736 45.585938 123.44336 C 45.585938 123.44336 45.170653 125.77395 40.589844 129.96289 C 38.509467 131.86529 37.115479 134.75057 37.306641 138.58008 C 37.656554 145.58984 41.268431 149.93359 49.042969 149.93359 C 51.520591 149.93359 53.623895 149.37828 55.404297 148.45312 C 56.572491 154.22807 62.407485 157.29493 65.646484 157.39062 C 66.98929 157.43032 69.659274 157.40229 72.083984 156.25391 C 74.030229 158.28165 76.740001 159.55984 78.861328 159.61914 C 82.705377 159.72652 90.946522 158.1495 90.404297 148.26367 L 94.291016 148.26367 C 94.214506 158.16406 101.51369 158.85094 105.34766 158.55273 C 108.31903 158.32161 111.68032 156.48574 113.5625 153.7832 C 115.83033 154.70479 118.35684 154.85525 120.20703 154.58594 C 123.9617 154.03942 129.04402 149.9149 129.10352 144.20508 C 130.45809 144.82832 132.06025 145.10547 134.04102 145.10547 C 141.81556 145.10547 145.42939 140.75976 145.7793 133.75 C 146.01338 129.06066 143.75845 125.5866 140.76562 123.73438 L 136.59766 118.63477 C 132.31153 118.63877 128.11224 119.61345 124.32031 121.17383 C 126.69214 116.49559 130.37445 112.06309 135.1543 109.5 C 136.41676 113.09052 139.98069 115.83561 145.89062 114.78516 C 158.98373 112.45796 160.62855 86.947042 150.86719 77.992188 C 154.8761 70.198896 154.22847 59.269858 148.79297 53.386719 C 139.04766 42.838844 129.69821 50.210393 129.72461 56.394531 C 129.74971 62.270536 138.73067 65.193066 141.23242 59.953125 L 143.38086 65.820312 C 141.49855 71.638464 128.00178 73.633371 125.79102 61.955078 C 123.24323 48.49645 130.9595 41.385701 136.50977 39.75 L 134.17188 37.644531 C 147.46231 33.689337 143.15485 13.515765 131.80469 14.044922 C 129.45082 14.154662 126.70889 14.356079 125.01758 15.84375 C 108.18606 9.5817395 104.6643 38.163737 93.236328 39.990234 L 91.630859 38.607422 C 96.45512 34.952896 97.658203 28.366955 97.658203 25.324219 C 97.658203 21.031034 94.657139 12.989482 84.398438 11.804688 C 83.1161 11.656588 81.94678 11.652437 80.880859 11.767578 z "
         d="m 80.009766,3.7109375 c -6.022046,0.650505 -11.01336,4.2545597 -13.648438,8.2363285 -0.983776,1.486547 -1.656708,2.979413 -2.207031,4.457031 -4.398662,-3.105047 -9.895726,-5.500142 -16.859375,-5.201172 -1.545981,0.06637 -2.896736,0.377389 -4.138672,0.773437 -0.856616,-0.145319 -1.778769,-0.460415 -2.585938,-0.498046 -5.254228,-0.244958 -10.15228,2.136663 -13.287109,5.443359 -3.134829,3.306696 -4.890362,7.391149 -5.542969,11.662109 -0.993344,6.500909 1.202943,14.265135 6.820313,19.291016 -2.615151,1.344283 -5.163466,3.046962 -7.408203,5.476562 -4.645627,5.028213 -6.389345,11.505833 -6.470703,17.800782 -0.05782,4.473381 0.772344,8.973331 2.503906,13.185547 -3.731964,6.886813 -4.022757,14.994576 -2.560547,22.378909 0.910533,4.59829 2.597234,9.03356 5.423828,12.88476 2.751025,3.74824 6.908417,7.01179 12.132813,8.05469 -1.989409,3.19457 -3.178043,7.13542 -2.96875,11.32813 0.240019,4.80828 1.707899,9.80791 5.382812,13.5664 3.674913,3.75849 9.050793,5.48633 14.447266,5.48633 0.724725,0 1.391122,-0.18024 2.097656,-0.24609 1.155765,1.46542 2.428041,2.75954 3.759766,3.7539 3.25874,2.43321 6.475629,3.82625 10.505859,3.94531 1.022,0.0302 2.803592,0.0398 4.943359,-0.31835 2.395867,1.49964 5.0645,2.45684 8.285157,2.54687 3.190476,0.0891 7.543691,-0.2833 12.076172,-3.24609 0.658571,-0.4305 1.240062,-1.0799 1.851562,-1.65039 0.54441,0.45876 1.043232,1.01386 1.630859,1.36523 4.62724,2.76688 8.990241,2.66255 11.783201,2.44531 3.80136,-0.29568 7.1763,-1.68182 10.07032,-3.9375 1.85353,0.20539 3.63329,0.15686 5.32812,-0.0898 4.23702,-0.61673 7.5927,-2.63155 10.50195,-5.65039 1.03919,-1.07833 1.95333,-2.38755 2.77344,-3.79492 5.18862,-0.12654 10.30226,-1.82148 13.83789,-5.4375 3.67496,-3.75853 5.14471,-8.75937 5.38477,-13.56836 0.23332,-4.67415 -1.32672,-8.87551 -3.73633,-12.25391 4.40307,-1.57796 7.96758,-4.67285 10.23828,-8.19531 2.74606,-4.25987 4.11224,-9.07628 4.63281,-13.974611 0.84187,-7.921562 -0.25814,-16.397372 -4.84765,-23.181641 3.16038,-9.774908 1.88172,-20.763363 -5.41602,-28.662109 -3.07926,-3.332847 -6.72312,-5.567446 -10.42187,-6.771485 a 8.104429,8.104429 0 0 0 0.0801,-0.353515 c 1.52539,-1.435182 2.85081,-3.023525 3.76954,-4.763672 2.23031,-4.22442 2.71574,-8.811032 2.06835,-13.056641 -0.64738,-4.245609 -2.41297,-8.29913 -5.54492,-11.582031 -3.13195,-3.2829007 -8.01348,-5.6551078 -13.26758,-5.4101562 -1.78192,0.083075 -4.60239,-0.029526 -7.74218,1.3046874 -4.93689,-0.7105232 -9.88273,0.3423273 -13.47461,2.625 -2.82166,1.7931898 -4.86522,3.9792178 -6.66406,6.2285158 -0.59881,-1.200537 -1.3053,-2.399995 -2.20118,-3.587891 C 98.101053,8.2172803 92.443752,4.5757015 85.328125,3.7539062 83.505181,3.5433705 81.725497,3.5256038 80.009766,3.7109375 Z" />
    </g>
    <g
       id="g39046">
      <path
         style="font-variation-settings:normal;opacity:1;vector-effect:none;fill:none;fill-opacity:1;stroke:#000000;stroke-width:1.4069px;stroke-linecap:round;stroke-linejoin:miter;stroke-miterlimit:4;stroke-dasharray:none;stroke-dashoffset:0;stroke-opacity:1;-inkscape-stroke:none;paint-order:fill stroke;stop-color:#000000;stop-opacity:1"
         id="circle12956"
         sodipodi:type="arc"
         sodipodi:cx="-88.777519"
         sodipodi:cy="81.666862"
         sodipodi:rx="50.012165"
         sodipodi:ry="50.012165"
         sodipodi:start="0.35306474"
         sodipodi:end="3.1415927"
         sodipodi:open="true"
         sodipodi:arc-type="arc"
         d="M -41.850234,98.959825 A 50.012165,50.012165 0 0 1 -97.560502,130.90177 50.012165,50.012165 0 0 1 -138.78968,81.666862"
         transform="scale(-1,1)" />
      <path
         style="font-variation-settings:normal;opacity:1;vector-effect:none;fill:none;fill-opacity:1;stroke:#ffffff;stroke-width:1px;stroke-linecap:round;stroke-linejoin:miter;stroke-miterlimit:4;stroke-dasharray:none;stroke-dashoffset:0;stroke-opacity:1;-inkscape-stroke:none;stop-color:#000000;stop-opacity:1"
         d="m 37.846476,103.6515 c 11.235991,2.09829 10.919579,18.7083 -3.86549,16.14153 -16.510374,-2.8663 -17.987455,-46.409773 8.447868,-37.596893"
         id="path1066"
         sodipodi:nodetypes="csc" />
      <path
         style="font-variation-settings:normal;opacity:1;vector-effect:none;fill:none;fill-opacity:1;stroke:#ffffff;stroke-width:1px;stroke-linecap:round;stroke-linejoin:miter;stroke-miterlimit:4;stroke-dasharray:none;stroke-dashoffset:0;stroke-opacity:1;-inkscape-stroke:none;stop-color:#000000;stop-opacity:1"
         d="M 39.12305,78.497387 C 51.031278,75.026284 51.931487,92.777283 38.699698,92.272824 23.197833,91.681818 18.35293,68.324342 27.104459,58.852089 36.849768,48.304214 45.756091,55.112787 45.72969,61.296925 45.70461,67.17293 37.359192,70.964883 34.857438,65.724942"
         id="path1579"
         sodipodi:nodetypes="csssc" />
      <path
         style="font-variation-settings:normal;opacity:1;vector-effect:none;fill:none;fill-opacity:1;stroke:#ffffff;stroke-width:1px;stroke-linecap:round;stroke-linejoin:miter;stroke-miterlimit:4;stroke-dasharray:none;stroke-dashoffset:0;stroke-opacity:1;-inkscape-stroke:none;stop-color:#000000;stop-opacity:1"
         d="m 32.066471,71.236475 c 1.882312,5.818151 16.27004,7.946702 17.589037,-3.86559 1.461073,-13.084651 -6.58711,-20.730849 -12.137378,-22.36655"
         id="path2819"
         sodipodi:nodetypes="csc" />
      <path
         style="font-variation-settings:normal;opacity:1;vector-effect:none;fill:none;fill-opacity:1;stroke:#ffffff;stroke-width:1px;stroke-linecap:round;stroke-linejoin:miter;stroke-miterlimit:4;stroke-dasharray:none;stroke-dashoffset:0;stroke-opacity:1;-inkscape-stroke:none;stop-color:#000000;stop-opacity:1"
         d="m 42.945105,31.200232 c 0.493521,-4.769571 9.44321,-4.246956 10.14245,2.462846 0.68361,6.559822 -5.573571,12.394332 -15.260395,9.511561 -13.290429,-3.955194 -8.98333,-24.130316 2.366824,-23.601158 4.48314,0.209009 12.143934,3.21458 15.838672,9.804131 6.457598,11.517099 15.824001,17.826553 24.728572,8.222553"
         id="path3316"
         sodipodi:nodetypes="cssssc" />
      <path
         style="font-variation-settings:normal;opacity:1;vector-effect:none;fill:none;fill-opacity:1;stroke:#ffffff;stroke-width:1px;stroke-linecap:round;stroke-linejoin:miter;stroke-miterlimit:4;stroke-dasharray:none;stroke-dashoffset:0;stroke-opacity:1;-inkscape-stroke:none;stop-color:#000000;stop-opacity:1"
         d="M 43.406676,38.665509 C 32.578979,33.830849 39.783917,19.636237 47.642274,19.298855 67.531378,18.444959 66.55104,41.493052 83.679676,41.178474 95.262448,40.965749 97.657313,29.617222 97.657313,25.324037 c 0,-4.293185 -3.000522,-12.334576 -13.259223,-13.519371 -10.2587,-1.184795 -13.307252,6.782349 -13.702782,12.249668 -0.628697,8.690327 11.324414,13.609292 15.184297,5.425998"
         id="path4021"
         sodipodi:nodetypes="csssssc" />
      <path
         style="font-variation-settings:normal;opacity:1;vector-effect:none;fill:none;fill-opacity:1;stroke:#ffffff;stroke-width:1px;stroke-linecap:round;stroke-linejoin:miter;stroke-miterlimit:4;stroke-dasharray:none;stroke-dashoffset:0;stroke-opacity:1;-inkscape-stroke:none;stop-color:#000000;stop-opacity:1"
         d="m 36.661635,113.1796 c 19.592202,0.97375 26.036299,17.21679 25.137687,24.25052 -0.898613,7.03372 -4.981004,12.50404 -12.755542,12.50404 -7.774538,0 -11.387394,-4.34525 -11.737307,-11.35501 -0.612083,-12.26176 15.02393,-14.83929 17.425405,-6.4881"
         id="path5410"
         sodipodi:nodetypes="csssc" />
      <path
         style="font-variation-settings:normal;opacity:1;vector-effect:none;fill:none;fill-opacity:1;stroke:#ffffff;stroke-width:1px;stroke-linecap:round;stroke-linejoin:miter;stroke-miterlimit:4;stroke-dasharray:none;stroke-dashoffset:0;stroke-opacity:1;-inkscape-stroke:none;stop-color:#000000;stop-opacity:1"
         d="m 45.585413,123.44256 c 14.526704,0.0127 30.914478,8.0278 31.762625,21.57668 0.764662,12.21523 -8.726218,12.45929 -11.701119,12.37138 -4.424905,-0.13076 -13.695286,-5.80597 -9.199716,-16.20492"
         id="path5963"
         sodipodi:nodetypes="cssc" />
      <path
         style="font-variation-settings:normal;opacity:1;vector-effect:none;fill:none;fill-opacity:1;stroke:#ffffff;stroke-width:1px;stroke-linecap:round;stroke-linejoin:miter;stroke-miterlimit:4;stroke-dasharray:none;stroke-dashoffset:0;stroke-opacity:1;-inkscape-stroke:none;stop-color:#000000;stop-opacity:1"
         d="m 64.084143,132.7305 c 9.181578,-0.6934 25.525963,1.04307 26.320718,15.53301 0.542225,9.88583 -7.700419,11.46379 -11.544468,11.35642 -5.158771,-0.1441 -13.78708,-7.50169 -6.935979,-15.04576"
         id="path6744"
         sodipodi:nodetypes="cssc" />
      <path
         style="font-variation-settings:normal;opacity:1;vector-effect:none;fill:none;fill-opacity:1;stroke:#ffffff;stroke-width:1px;stroke-linecap:round;stroke-linejoin:miter;stroke-miterlimit:4;stroke-dasharray:none;stroke-dashoffset:0;stroke-opacity:1;-inkscape-stroke:none;stop-color:#000000;stop-opacity:1"
         d="m 123.03775,128.66612 c -9.18158,-0.6934 -28.622855,3.58534 -28.746598,19.59739 -0.07651,9.90039 7.222828,10.58676 11.056798,10.28855 6.66355,-0.5183 15.28971,-9.10324 5.66671,-17.16613"
         id="path7420"
         sodipodi:nodetypes="cssc" />
      <path
         style="font-variation-settings:normal;opacity:1;vector-effect:none;fill:none;fill-opacity:1;stroke:#ffffff;stroke-width:1px;stroke-linecap:round;stroke-linejoin:miter;stroke-miterlimit:4;stroke-dasharray:none;stroke-dashoffset:0;stroke-opacity:1;-inkscape-stroke:none;stop-color:#000000;stop-opacity:1"
         d="m 136.59788,118.63397 c -14.5267,0.0127 -28.05667,11.18375 -29.42132,22.28928 -1.49271,12.14777 8.13258,14.37562 13.02968,13.6628 5.1481,-0.74935 12.52507,-8.36656 6.89889,-17.27869"
         id="path8045"
         sodipodi:nodetypes="cssc" />
      <path
         style="font-variation-settings:normal;opacity:1;vector-effect:none;fill:none;fill-opacity:1;stroke:#ffffff;stroke-width:1px;stroke-linecap:round;stroke-linejoin:miter;stroke-miterlimit:4;stroke-dasharray:none;stroke-dashoffset:0;stroke-opacity:1;-inkscape-stroke:none;stop-color:#000000;stop-opacity:1"
         d="m 141.12209,97.850332 c -9.97008,2.098291 -8.66581,19.322768 4.76769,16.935068 18.07271,-3.21229 14.33579,-50.595035 -11.14598,-37.465091"
         id="path9178"
         sodipodi:nodetypes="csc" />
      <path
         style="font-variation-settings:normal;opacity:1;vector-effect:none;fill:none;fill-opacity:1;stroke:#ffffff;stroke-width:1px;stroke-linecap:round;stroke-linejoin:miter;stroke-miterlimit:4;stroke-dasharray:none;stroke-dashoffset:0;stroke-opacity:1;-inkscape-stroke:none;stop-color:#000000;stop-opacity:1"
         d="m 137.99729,72.844711 c -10.59675,-3.050079 -11.48513,14.704718 0.42335,13.775437 15.46611,-1.206901 19.12325,-23.760658 10.37172,-33.232911 -9.74531,-10.547875 -19.09361,-3.176358 -19.06721,3.00778 0.0251,5.876005 9.00559,8.798751 11.50734,3.55881"
         id="path9180"
         sodipodi:nodetypes="csssc" />
      <path
         style="font-variation-settings:normal;opacity:1;vector-effect:none;fill:none;fill-opacity:1;stroke:#ffffff;stroke-width:1px;stroke-linecap:round;stroke-linejoin:miter;stroke-miterlimit:4;stroke-dasharray:none;stroke-dashoffset:0;stroke-opacity:1;-inkscape-stroke:none;stop-color:#000000;stop-opacity:1"
         d="m 143.38048,65.819959 c -1.88231,5.818151 -15.37828,7.812703 -17.58904,-3.86559 -2.54779,-13.458628 5.16859,-20.567914 10.71886,-22.203615"
         id="path9182"
         sodipodi:nodetypes="csc" />
      <path
         style="font-variation-settings:normal;opacity:1;vector-effect:none;fill:none;fill-opacity:1;stroke:#ffffff;stroke-width:1px;stroke-linecap:round;stroke-linejoin:miter;stroke-miterlimit:4;stroke-dasharray:none;stroke-dashoffset:0;stroke-opacity:1;-inkscape-stroke:none;stop-color:#000000;stop-opacity:1"
         d="m 129.6219,33.770345 c 7.48154,-5.289162 4.74253,-8.798333 -0.27554,-9.911683 -4.6352,-1.028405 -10.13973,1.589696 -10.44945,4.561667 -0.68361,6.559822 5.58795,12.107779 15.27478,9.225008 13.29043,-3.955194 8.98333,-24.130316 -2.36683,-23.601158 -4.48314,0.209009 -12.14393,3.21458 -15.83867,9.804131 -6.4576,11.517099 -7.54751,19.407156 -22.730322,16.141382 C 105.88537,37.967962 108.84868,3.1648832 130.88759,19.06936"
         id="path9184"
         sodipodi:nodetypes="cssssscc" />
      <path
         style="font-variation-settings:normal;opacity:1;vector-effect:none;fill:none;fill-opacity:1;stroke:#ffffff;stroke-width:1px;stroke-linecap:round;stroke-linejoin:miter;stroke-miterlimit:4;stroke-dasharray:none;stroke-dashoffset:0;stroke-opacity:1;-inkscape-stroke:none;stop-color:#000000;stop-opacity:1"
         d="m 143.48039,107.24581 c -14.23052,0.41726 -22.71848,17.0359 -21.98467,25.36592 0.62225,7.06353 4.77112,12.49402 12.54566,12.49402 7.77454,0 11.38739,-4.34525 11.73731,-11.35501 0.61208,-12.26176 -15.79629,-16.21425 -17.90563,-4.58944"
         id="path9186"
         sodipodi:nodetypes="csssc" />
      <circle
         style="font-variation-settings:normal;opacity:1;vector-effect:none;fill:none;fill-opacity:1;stroke:#ffffff;stroke-width:1.08584px;stroke-linecap:round;stroke-linejoin:miter;stroke-miterlimit:4;stroke-dasharray:none;stroke-dashoffset:0;stroke-opacity:1;-inkscape-stroke:none;paint-order:fill stroke;stop-color:#000000;stop-opacity:1"
         id="path12633"
         cx="88.777519"
         cy="81.666862"
         r="37.972134" />
      <text
         xml:space="preserve"
         style="font-size:14px;line-height:1.25;font-family:'Futura Hv BT';-inkscape-font-specification:'Futura Hv BT';text-align:start;letter-spacing:0.5px;word-spacing:0px;text-anchor:start"
         id="text13686"
         x="67.703903"
         y="0"><textPath
           xlink:href="#circle12956"
           id="textPath20862"><tspan
             id="tspan13684"
             style="font-style:normal;font-variant:normal;font-weight:normal;font-stretch:normal;font-size:14px;font-family:'Liberation Serif';-inkscape-font-specification:'Liberation Serif';text-align:start;text-anchor:start;fill:#ffffff">FÜR GUTE KÜCHE</tspan></textPath></text>
      <path
         id="path30880"
         style="font-variation-settings:normal;opacity:1;vector-effect:none;fill:#ffffff;fill-opacity:1;stroke:none;stroke-width:1px;stroke-linecap:butt;stroke-linejoin:miter;stroke-miterlimit:4;stroke-dasharray:none;stroke-dashoffset:0;stroke-opacity:1;-inkscape-stroke:none;stop-color:#000000;stop-opacity:1"
         d="m 85.012459,64.564821 1.73841,0.032 c 2.684801,3.154821 2.289035,11.036684 -1.959366,16.798646 -4.74422,6.434424 -12.485661,11.846689 -18.05553,6.741354 L 76.676575,75.24008 c -0.259929,2.597493 -1.015006,4.500931 -3.406186,5.613368 -0.791004,0.367995 -1.181206,0.686462 -0.489063,0.821055 2.280429,0.443447 7.382912,-3.413066 7.103116,-10.140798 z m 0.823882,-1.548878 c 4.838635,-8.993217 7.231907,-11.209692 8.758582,-12.238798 1.559846,0.486764 1.45961,12.85987 -8.758582,12.238798 z m 3.017146,1.414131 c 3.781783,0.424781 15.238643,-6.365673 7.409301,-15.33887 1.705753,-1.389829 3.458785,-1.161219 5.728152,-1.127768 0.49409,0.0073 0.85336,-0.787983 0.0963,-0.831737 -2.315392,-0.133817 -4.9146,-0.648396 -6.949438,0.957567 -1.821808,-1.222889 -9.696178,-4.316429 -17.219318,2.721157 -7.620467,7.128631 -6.549874,11.341099 -3.11552,11.690129 3.825537,0.388785 9.737326,-4.656346 11.022219,-9.07781 0.676569,-2.328152 -2.164335,-1.7333 -2.603282,-0.444446 -0.593548,1.742798 -3.65064,8.857949 -6.924816,8.6105 -3.083047,-0.233004 -1.083397,-5.599264 1.90007,-8.819941 3.533998,-3.81498 10.367582,-6.86712 14.989341,-4.098591 -6.764599,5.262913 -10.507487,11.597949 -15.055324,17.541189 -7.8247,-9.045777 -20.971465,-0.54811 -23.546228,5.908865 -3.588116,8.998254 -1.678776,21.473217 9.816195,16.257651 12.991029,9.94106 37.660501,-11.606119 24.452348,-23.947895 z m -16.062602,5.888882 c -6.208376,0.04614 -12.401518,4.33765 -12.418509,10.418315 -0.0089,3.195605 0.651287,5.237899 2.775392,7.143092 -3.543631,1.267218 -9.345423,-0.03085 -7.832572,-8.474533 1.511833,-8.437994 8.192498,-16.366701 14.878444,-16.131934 4.988982,0.175181 6.495861,5.502782 6.495861,5.502782 L 64.618215,86.690653 c -3.598519,-6.366457 1.115886,-14.69949 7.852543,-15.199114 1.306236,-0.09688 0.855983,-1.176566 0.320127,-1.172583 z"
         sodipodi:nodetypes="ccsccsscccccccsscssssssccsccsccssccss" />
      <path
         id="path31936"
         style="font-variation-settings:normal;opacity:1;vector-effect:none;fill:#ffffff;fill-opacity:1;stroke:none;stroke-width:1px;stroke-linecap:butt;stroke-linejoin:miter;stroke-miterlimit:4;stroke-dasharray:none;stroke-dashoffset:0;stroke-opacity:1;-inkscape-stroke:none;stop-color:#000000;stop-opacity:1"
         d="m 104.67746,89.249384 1.73841,0.032 c 2.6848,3.154821 2.28904,11.036686 -1.95936,16.798646 -4.744223,6.43442 -12.485664,11.84669 -18.055533,6.74135 l 9.940602,-12.896737 c -0.259929,2.597497 -1.015006,4.500927 -3.406186,5.613367 -0.791004,0.368 -1.181206,0.68646 -0.489063,0.82106 2.280429,0.44344 7.382912,-3.41307 7.103116,-10.140802 z m 0.82388,-1.548878 c 4.83864,-8.993217 7.23191,-11.209692 8.75859,-12.238798 1.55984,0.486764 1.45961,12.85987 -8.75859,12.238798 z m 3.01715,1.414131 c 3.78178,0.424781 15.23864,-6.365673 7.4093,-15.33887 1.70575,-1.389829 3.45879,-1.161219 5.72815,-1.127768 0.49409,0.0073 0.85336,-0.787983 0.0963,-0.831737 -2.31539,-0.133817 -4.9146,-0.648396 -6.94943,0.957567 -1.82181,-1.222889 -9.69618,-4.316429 -17.219322,2.721157 -7.620467,7.128631 -6.549874,11.341099 -3.11552,11.690129 3.825537,0.388785 9.737322,-4.656346 11.022222,-9.07781 0.67657,-2.328152 -2.16434,-1.7333 -2.60329,-0.444446 -0.59354,1.742798 -3.650635,8.857949 -6.924811,8.6105 -3.083047,-0.233004 -1.083397,-5.599264 1.90007,-8.819941 3.534001,-3.81498 10.367581,-6.86712 14.989341,-4.098591 -6.7646,5.262913 -10.50749,11.597949 -15.055324,17.541189 -7.8247,-9.045777 -20.971465,-0.54811 -23.546228,5.908865 -3.588116,8.998249 -1.678776,21.473219 9.816195,16.257649 12.991029,9.94106 37.660497,-11.60612 24.452347,-23.947893 z m -16.062601,5.888882 c -6.208376,0.04614 -12.401518,4.33765 -12.418509,10.418311 -0.0089,3.19561 0.651287,5.2379 2.775392,7.1431 -3.543631,1.26721 -9.345423,-0.0309 -7.832572,-8.47454 1.511833,-8.437991 8.192498,-16.366698 14.878444,-16.131931 4.988982,0.175181 6.495861,5.502782 6.495861,5.502782 L 84.283219,111.37522 c -3.598519,-6.36646 1.115886,-14.699494 7.852543,-15.199118 1.306236,-0.09688 0.855983,-1.176566 0.320127,-1.172583 z"
         sodipodi:nodetypes="ccsccsscccccccsscssssssccsccsccssccss" />
    </g>
  </g>
</svg>
